<svg width="146" height="58" viewBox="0 0 146 58" fill="none" xmlns="http://www.w3.org/2000/svg">
<path d="M8.74179 9.81108C8.75017 10.2245 8.63529 10.6335 8.40683 11.0036C8.20455 11.3114 7.93713 11.5882 7.61667 11.8217L6.59461 12.3694C6.19342 12.4807 5.77338 12.5415 5.34925 12.5496V13.3747H3.46833V12.5496C2.92464 12.4845 2.39353 12.3633 1.888 12.1891C1.48575 12.05 1.13401 11.8305 0.865949 11.5513C0.614657 11.2741 0.423023 10.9647 0.299094 10.6361C0.148078 10.2517 0.0586016 9.85329 0.0328443 9.45056V6.04643C0.0282468 5.6414 0.146175 5.24158 0.376392 4.88168C0.53459 4.60222 0.766096 4.35384 1.0549 4.15371C1.38524 3.91708 1.76661 3.73143 2.18002 3.606C2.57947 3.44794 3.02567 3.3831 3.46833 3.4188V2.87109H5.46091V3.4188C5.88432 3.4374 6.30294 3.50033 6.70627 3.606C7.10896 3.71546 7.47188 3.90361 7.76268 4.15371C8.08314 4.38713 8.35055 4.66401 8.55284 4.97181C8.78129 5.34188 8.89618 5.75087 8.8878 6.16429V9.81108H8.74179ZM3.46833 4.70142C3.06683 4.7661 2.68289 4.88819 2.33462 5.06194C2.0936 5.32775 1.96148 5.64771 1.95671 5.9771V9.99827C1.93972 10.1854 1.97798 10.3731 2.06837 10.546C2.15163 10.6836 2.26849 10.8062 2.41192 10.9065C2.52357 11.0036 2.74687 11.0937 2.85853 11.1838C3.03328 11.2562 3.2297 11.2874 3.42538 11.274L3.46833 4.70142ZM6.90381 5.9771C6.91428 5.80769 6.87985 5.63843 6.80284 5.48062C6.72582 5.3228 6.60799 5.18007 6.4572 5.06194C6.16117 4.87203 5.80888 4.74776 5.43514 4.70142V11.1838C5.54679 11.1838 5.77869 11.0937 5.89034 11.0937C6.06016 11.0224 6.21401 10.9286 6.34554 10.8164C6.48352 10.7137 6.59704 10.5915 6.6805 10.4559C6.7701 10.3148 6.80879 10.1562 6.79215 9.99827V5.9771H6.90381Z" fill="#55565B"/>
<path d="M18.8076 10.6361C18.8897 11.386 18.6062 12.1322 18.0174 12.716C17.7023 12.9608 17.329 13.1514 16.9202 13.2765C16.5113 13.4017 16.0752 13.4586 15.6383 13.444C15.2092 13.4889 14.7731 13.4548 14.3625 13.3444C13.952 13.2339 13.5778 13.0499 13.2679 12.8062C12.7408 12.2628 12.4618 11.5895 12.4777 10.8996V5.61658C12.4883 5.24254 12.5635 4.87152 12.701 4.51423C12.8215 4.18666 13.0134 3.87909 13.2679 3.606C13.506 3.322 13.8732 3.12521 14.2899 3.05829C14.7673 2.94457 15.261 2.88165 15.7586 2.87109C16.2512 2.87541 16.7403 2.93849 17.2101 3.05829C17.3951 3.06968 17.574 3.1173 17.7311 3.19703C17.8882 3.27676 18.0189 3.3862 18.1119 3.51587C18.3696 3.7873 18.5619 4.09538 18.6787 4.4241C18.7757 4.81647 18.8132 5.2169 18.7904 5.61658L18.8076 10.6361ZM16.772 5.42939C16.7513 5.14892 16.6759 4.87284 16.5487 4.61129C16.4371 4.33397 16.0935 4.24384 15.6383 4.24384C15.445 4.22177 15.2481 4.25356 15.0801 4.33397C14.8482 4.51423 14.7365 4.61129 14.7365 4.79155C14.635 4.92909 14.5955 5.09077 14.6249 5.24913V11.0036C14.6387 11.2447 14.7147 11.4808 14.8482 11.6969C14.9469 11.817 15.0829 11.9141 15.2427 11.9786C15.4024 12.0431 15.5803 12.0726 15.7586 12.0643C15.9368 12.08 16.1168 12.0536 16.2769 11.9884C16.4369 11.9232 16.5701 11.8219 16.6604 11.6969C16.8923 11.5166 16.8923 11.2393 16.8923 10.8718V5.42939H16.772Z" fill="#55565B"/>
<path d="M26.9585 13.3747V8.80578H24.5794V13.3747H22.6555V2.87109H24.691V7.25971H27.0701V2.87109H29.1056V13.3747H26.9585Z" fill="#55565B"/>
<path d="M33.8549 13.3744V15.385H32.1372V12.0016L32.936 11.9115C33.2737 11.6291 33.5137 11.2801 33.6316 10.8993C33.7824 10.3906 33.8573 9.86927 33.8549 9.34628L34.0783 2.96094H39.9615V11.9739H40.7517V15.4404H39.0339V13.4645H33.8549V13.3744ZM35.6672 9.26308C35.6672 9.90785 35.5469 10.3585 35.5469 10.8161C35.4851 11.2007 35.3335 11.5724 35.1003 11.9115H37.926V4.42381H35.8905L35.6672 9.26308Z" fill="#55565B"/>
<path d="M52.9739 2.78148C53.4362 2.78056 53.8953 2.84388 54.331 2.96868C54.691 3.08369 55.0316 3.23511 55.3444 3.41932C55.5995 3.62673 55.7933 3.87794 55.9113 4.15423C56.05 4.47791 56.1254 4.81709 56.1346 5.15952L54.2193 5.52004C54.2196 5.20769 54.1407 4.8986 53.9874 4.61181C53.9027 4.49074 53.7768 4.3918 53.6245 4.32668C53.4723 4.26156 53.3002 4.23299 53.1285 4.24436C52.9324 4.22066 52.7321 4.25251 52.5617 4.33449L52.2181 4.61181C52.1293 4.71756 52.0898 4.84528 52.1065 4.97233V11.0942C52.1065 11.1843 52.2181 11.3646 52.2181 11.4547L52.5617 11.7321C52.7321 11.814 52.9324 11.8459 53.1285 11.8222C53.9187 11.8222 54.2622 11.3646 54.2622 10.5465C54.5916 10.6212 54.934 10.6517 55.2757 10.6366C55.6193 10.6366 55.9542 10.7268 56.2978 10.7268C56.3145 11.4222 56.0322 12.1008 55.499 12.6472C55.2068 12.8896 54.8546 13.0796 54.4655 13.2051C54.0763 13.3305 53.6589 13.3884 53.2402 13.3752C52.811 13.4211 52.3745 13.3875 51.9638 13.277C51.5531 13.1665 51.1789 12.982 50.8697 12.7373C50.5825 12.4776 50.3636 12.1734 50.2263 11.8433C50.089 11.5132 50.0361 11.164 50.071 10.8169V5.6171C50.0522 5.24964 50.0897 4.88173 50.1826 4.52168C50.2916 4.19483 50.4688 3.88535 50.7065 3.60652C50.97 3.32362 51.3231 3.10327 51.7286 2.96868C52.1123 2.80978 52.5451 2.74473 52.9739 2.78148Z" fill="#55565B"/>
<path d="M65.6421 10.6361C65.7197 11.3856 65.4367 12.1305 64.8519 12.716C64.5384 12.9638 64.166 13.1579 63.7571 13.2866C63.3483 13.4153 62.9114 13.4759 62.4728 13.4648C62.0424 13.5103 61.6047 13.4765 61.1927 13.366C60.7807 13.2556 60.405 13.0713 60.0938 12.827C59.5618 12.2773 59.2798 11.5969 59.295 10.8996V5.61658C59.3057 5.24254 59.3808 4.87152 59.5183 4.51423C59.6424 4.18781 59.834 3.88073 60.0852 3.606C60.3253 3.3236 60.6916 3.12729 61.1072 3.05829C61.5848 2.94511 62.0784 2.88219 62.5759 2.87109C63.0743 2.87404 63.5693 2.93713 64.0446 3.05829C64.4474 3.15083 64.8046 3.34225 65.0666 3.606C65.321 3.87909 65.513 4.18666 65.6335 4.51423V10.6361H65.6421ZM63.5894 5.42939C63.5656 5.14858 63.4873 4.87252 63.3575 4.61129C63.2458 4.33397 62.9109 4.24384 62.4986 4.24384C62.3024 4.22014 62.1021 4.25199 61.9317 4.33397L61.5968 4.61129C61.4765 4.70142 61.4766 4.88168 61.3649 5.06887V10.8164C61.3711 11.0725 61.4504 11.324 61.5968 11.5513C61.6997 11.6574 61.8296 11.7445 61.9778 11.8067C62.1259 11.8689 62.2889 11.9047 62.4557 11.9118C62.6263 11.923 62.7975 11.8951 62.9494 11.8313C63.1013 11.7675 63.2279 11.6705 63.3145 11.5513C63.5464 11.3641 63.5464 11.0937 63.5464 10.7262L63.5894 5.42939Z" fill="#55565B"/>
<path d="M70.3916 13.3744V15.385H68.6738V12.0016L69.464 11.9115C69.8099 11.634 70.0511 11.283 70.1597 10.8993C70.3182 10.3916 70.3961 9.86979 70.3916 9.34628L70.6149 2.96094H76.4724V11.9739H77.3312V15.4404H75.6135V13.4645H70.3916V13.3744ZM72.178 9.26308C72.178 9.90785 72.0578 10.3585 72.0578 10.8161C71.9959 11.2007 71.8444 11.5724 71.6112 11.9115H74.4368V4.42381H72.4271L72.178 9.26308Z" fill="#55565B"/>
<path d="M80.5691 13.3747V2.87109H86.3407V4.4241H82.6046V7.25971H85.8855V8.80578H82.6046V11.8217H86.3407V13.3747H80.5691Z" fill="#55565B"/>
<path d="M94.3708 6.80214L91.6568 13.3747H89.7329V2.8711H91.6568V9.51297L94.3708 2.84337H96.2947V13.3747H94.2592L94.3708 6.80214ZM91.8801 0.5C91.8744 0.628471 91.913 0.755693 91.9917 0.867452C92.1034 0.957581 92.1034 1.04771 92.2236 1.22797L92.5586 1.50529C92.6928 1.57693 92.8537 1.60878 93.0138 1.59542C93.2371 1.59542 93.3488 1.59542 93.4604 1.50529L93.804 1.22797C93.8719 1.18494 93.9271 1.13029 93.9657 1.06795C94.0044 1.00561 94.0254 0.937132 94.0273 0.867452C94.0273 0.777322 94.1475 0.680259 94.1475 0.5H95.6162C95.5772 0.751111 95.4933 0.996327 95.3671 1.22797C95.4873 1.41516 95.2554 1.68555 95.0321 1.87274C94.791 2.07527 94.5264 2.25868 94.242 2.42046C93.8794 2.53178 93.4961 2.59273 93.1083 2.60071C92.6841 2.5926 92.2641 2.5318 91.8629 2.42046C91.533 2.31876 91.2549 2.13082 91.0727 1.88661C90.8798 1.69244 90.7262 1.47481 90.6175 1.24184C90.507 1.01931 90.432 0.786338 90.3942 0.548531L91.8801 0.5Z" fill="#55565B"/>
<path d="M103.303 2.78164C103.766 2.78002 104.225 2.84336 104.66 2.96883C105.023 3.08372 105.367 3.23513 105.683 3.41948C105.935 3.62872 106.128 3.87938 106.249 4.15438C106.388 4.47807 106.463 4.81724 106.473 5.15967L104.549 5.52019C104.551 5.20836 104.475 4.89937 104.326 4.61196C104.236 4.48631 104.103 4.38454 103.943 4.31924C103.782 4.25394 103.602 4.22796 103.424 4.24451C103.228 4.22081 103.027 4.25266 102.857 4.33464L102.513 4.61196C102.424 4.71772 102.385 4.84544 102.402 4.97248V11.0944C102.402 11.1845 102.513 11.3648 102.513 11.4549L102.857 11.7322C103.027 11.8142 103.228 11.846 103.424 11.8223C104.214 11.8223 104.549 11.3648 104.549 10.5467C104.881 10.621 105.226 10.6515 105.571 10.6368C105.906 10.6368 106.249 10.7269 106.584 10.7269C106.604 11.4216 106.325 12.1003 105.794 12.6474C105.502 12.8894 105.149 13.0792 104.76 13.2046C104.371 13.33 103.954 13.3882 103.535 13.3753C103.105 13.4208 102.667 13.387 102.255 13.2766C101.843 13.1661 101.468 12.9818 101.156 12.7375C100.871 12.4771 100.653 12.1727 100.517 11.8426C100.382 11.5125 100.33 11.1636 100.366 10.817V5.61726C100.361 5.24837 100.413 4.88043 100.521 4.52183C100.639 4.19156 100.831 3.88146 101.088 3.60667C101.347 3.32378 101.698 3.1033 102.101 2.96883C102.49 2.82375 102.918 2.75941 103.346 2.78164" fill="#55565B"/>
<path d="M113.035 4.4241V13.3747H110.999V4.4241H108.852V2.87109H115.07V4.4241H113.035Z" fill="#55565B"/>
<path d="M122.989 7.89725C123.243 7.95422 123.477 8.05764 123.674 8.19951C123.87 8.34138 124.024 8.51789 124.122 8.71535C124.351 9.18069 124.465 9.67763 124.457 10.1782C124.546 11.0329 124.223 11.8823 123.556 12.5493C123.201 12.8294 122.773 13.041 122.303 13.1683C121.833 13.2956 121.333 13.3352 120.841 13.2842H118.127V2.88465H120.953C121.409 2.8542 121.869 2.90415 122.299 3.03104C122.729 3.15793 123.119 3.35873 123.444 3.61955C124.029 4.2051 124.312 4.94995 124.234 5.69947C124.243 6.14043 124.126 6.57711 123.89 6.97515C123.89 7.3426 123.444 7.61299 122.989 7.89031M122.422 5.8104C122.465 5.45359 122.346 5.09627 122.087 4.80511C121.76 4.60954 121.359 4.51373 120.953 4.53472H120.275V7.30794H120.953C121.165 7.3333 121.382 7.31264 121.582 7.24807C121.781 7.1835 121.955 7.07735 122.087 6.94049C122.302 6.6013 122.417 6.22625 122.422 5.84506M122.533 10.0465C122.558 9.66271 122.441 9.2817 122.198 8.95107C122.068 8.81308 121.894 8.70609 121.694 8.64141C121.495 8.57674 121.277 8.55677 121.065 8.58362H120.275V11.8699H121.065C121.343 11.8655 121.615 11.8034 121.855 11.6896C122.06 11.6194 122.223 11.4877 122.31 11.3222C122.434 11.1553 122.51 10.9682 122.533 10.7745V10.0465Z" fill="#55565B"/>
<path d="M132.943 6.80213L130.229 13.3747H128.305V2.87109H130.229V9.54069H130.341L133.055 2.87109H134.979V13.3747H132.943V6.80213Z" fill="#55565B"/>
<path d="M138.371 13.3751L139.05 10.0888C139.129 9.76339 139.283 9.45292 139.505 9.17364C139.673 8.89588 139.951 8.67138 140.295 8.5358C139.758 8.36082 139.316 8.03612 139.05 7.62064C138.81 7.16046 138.695 6.66382 138.715 6.1647C138.665 5.31165 138.984 4.47116 139.617 3.78666C139.945 3.5054 140.346 3.2862 140.792 3.14477C141.237 3.00333 141.716 2.94316 142.193 2.96856H145.182V13.4652H143.121V8.90325H142.554C142.363 8.90372 142.175 8.93599 142.001 8.99803C141.826 9.06007 141.67 9.15054 141.541 9.26377C141.197 9.45096 141.085 9.90161 140.862 10.4563L140.295 13.3751H138.371ZM142.331 4.4245C142.093 4.41405 141.855 4.4502 141.638 4.52988C141.422 4.60956 141.232 4.73039 141.085 4.88208C140.835 5.2355 140.718 5.64049 140.75 6.04683C140.719 6.24475 140.743 6.44584 140.82 6.63538C140.897 6.82491 141.026 6.9981 141.197 7.14226C141.528 7.3304 141.926 7.42762 142.331 7.41958H143.121V4.4245H142.331Z" fill="#55565B"/>
<path d="M6.139 22.0483L2.74646 30.1738H0.375977V17.209H2.85811V25.4247H2.96977L6.37089 17.209H8.85303V30.1738H6.25065L6.139 22.0483Z" fill="#55565B"/>
<path d="M20.955 30.1738V24.5164H18.1294V30.1738H15.6472V17.209H18.1294V22.596H21.0753V17.209H23.5574V30.1738H20.955Z" fill="#55565B"/>
<path d="M35.891 30.1738V24.5164H32.9536V30.1738H30.4629V17.209H32.9536V22.596H35.891V17.209H38.3817V30.1738H35.891Z" fill="#55565B"/>
<path d="M53.0853 26.8876C53.147 27.7988 52.8263 28.7001 52.1749 29.4459C51.7655 29.7464 51.2827 29.9743 50.7576 30.1152C50.2325 30.2561 49.6767 30.3068 49.1259 30.264C48.5908 30.3077 48.0503 30.2572 47.5417 30.116C47.0331 29.9747 46.5686 29.7461 46.18 29.4459C45.5665 28.7554 45.2635 27.9164 45.3211 27.0679V20.6063C45.3228 20.1383 45.3979 19.6724 45.5445 19.2197C45.6333 18.8089 45.8691 18.4281 46.223 18.1243C46.5658 17.8098 46.9913 17.5611 47.4683 17.3963C48.0398 17.1975 48.6586 17.1028 49.2805 17.119C49.9386 17.1036 50.5936 17.198 51.2044 17.3963C51.6599 17.5525 52.0806 17.768 52.4498 18.0341C52.807 18.336 53.0434 18.7177 53.1283 19.1295C53.2431 19.6161 53.2949 20.111 53.2829 20.6063V26.9084L53.0853 26.8876ZM50.5946 20.4052C50.5903 20.0526 50.4751 19.7067 50.2597 19.3999C50.1368 19.2503 49.9674 19.1292 49.7685 19.0489C49.5696 18.9686 49.348 18.9319 49.1259 18.9424C49.003 18.9349 48.8795 18.9476 48.7629 18.9798C48.6463 19.0119 48.5389 19.0629 48.4474 19.1295C48.2155 19.2197 48.1039 19.3999 47.9922 19.4901C47.8694 19.6574 47.7932 19.8443 47.7689 20.0378C47.7689 20.225 47.6573 20.4052 47.6573 20.5855V27.165C47.6484 27.4885 47.7656 27.8062 47.9922 28.0732C48.2155 28.3505 48.5591 28.4406 49.1259 28.4406C49.3482 28.4525 49.5704 28.4164 49.7697 28.336C49.969 28.2556 50.1381 28.1337 50.2597 27.9831C50.4881 27.6807 50.6044 27.3318 50.5946 26.9778V20.4052Z" fill="#55565B"/>
<path d="M65.8652 23.421C66.2001 23.4964 66.508 23.635 66.7634 23.8255C67.0188 24.016 67.2143 24.2528 67.3338 24.5164C67.6178 25.0977 67.7719 25.7151 67.789 26.3398C67.789 27.7264 67.4455 28.7178 66.6553 29.3557C66.2227 29.69 65.7052 29.9444 65.1387 30.1012C64.5722 30.258 63.9702 30.3136 63.3744 30.2639H59.939V17.209H63.4432C64.9204 17.209 65.9339 17.4863 66.5007 18.1241C67.239 18.873 67.6035 19.8177 67.5228 20.7726C67.5376 21.3035 67.4208 21.8315 67.1792 22.3256C67.0612 22.5639 66.8778 22.7776 66.6427 22.9505C66.4077 23.1234 66.1272 23.2511 65.8222 23.3239L65.8652 23.421ZM65.1867 20.7726C65.2251 20.545 65.2044 20.3134 65.1261 20.0926C65.0477 19.8718 64.9133 19.6666 64.7315 19.49C64.5304 19.3517 64.2963 19.2484 64.0436 19.1863C63.7909 19.1243 63.5251 19.1049 63.2628 19.1294H62.4726V22.4157H63.2628C63.5306 22.4319 63.7996 22.4026 64.0526 22.3297C64.3055 22.2569 64.5368 22.1421 64.7315 21.9928C65.075 21.8125 65.1867 21.3549 65.1867 20.8072M65.3069 26.0694C65.3852 25.578 65.2252 25.0812 64.8603 24.6828C64.6726 24.5217 64.4422 24.3969 64.1865 24.3177C63.9307 24.2385 63.6561 24.2069 63.383 24.2252H62.5242V28.2325H63.5376C63.8906 28.2273 64.2385 28.1636 64.5597 28.0453C64.7999 27.9439 64.9972 27.787 65.1265 27.5947C65.2465 27.3716 65.3079 27.1308 65.3069 26.8875V26.0694Z" fill="#55565B"/>
<path d="M80.4574 30.1733L79.7789 27.4347H76.8415C76.7213 27.8923 76.6096 28.3499 76.498 28.8214L76.163 30.208H73.5864C74.1447 28.0171 74.7115 25.8263 75.1668 23.7256C75.622 21.6249 76.3005 19.434 76.7471 17.2432H79.5813L82.8622 30.208L80.4574 30.1733ZM78.19 20.2244C78.0697 21.1326 77.8464 22.0478 77.7348 22.8728C77.6231 23.6978 77.3912 24.6962 77.1679 25.6114H79.4353L78.4133 20.2244H78.19Z" fill="#55565B"/>
<path d="M96.8621 17.209V28.3504H97.8756V32.7321H95.7284V30.2639H88.9434V17.209H91.4255V28.3504H94.2598V17.209H96.8621Z" fill="#55565B"/>
<path d="M109.642 22.0483L106.249 30.1738H103.87V17.209H106.361V25.4247L109.754 17.209H112.244V30.1738H109.754L109.642 22.0483Z" fill="#55565B"/>
<path d="M118.462 30.1736L119.364 26.0692C119.438 25.6421 119.632 25.2342 119.931 24.8767C120.155 24.5262 120.513 24.2439 120.953 24.0725C120.288 23.8591 119.729 23.4739 119.364 22.977C119.086 22.3921 118.935 21.773 118.918 21.1467C118.801 20.0921 119.205 19.043 120.043 18.2279C120.458 17.8948 120.954 17.6337 121.499 17.4609C122.044 17.288 122.627 17.2069 123.212 17.2226H126.948V30.1736H124.457V24.6271H123.779C123.322 24.6229 122.879 24.7536 122.533 24.9946C122.074 25.3942 121.796 25.9072 121.743 26.4505L120.953 30.1042H118.462V30.1736ZM123.444 19.1292C123.143 19.1026 122.839 19.139 122.56 19.2349C122.282 19.3309 122.039 19.4831 121.855 19.6769C121.507 20.1079 121.347 20.6202 121.4 21.1329C121.365 21.3675 121.399 21.6053 121.497 21.8278C121.595 22.0503 121.756 22.2514 121.967 22.4155C122.386 22.6805 122.913 22.8091 123.444 22.776H124.457V19.1292H123.444Z" fill="#55565B"/>
<path d="M138.595 27.3444L137.469 24.9733L136.447 22.6854H136.336V30.1731H133.845V17.2083H136.336L138.148 20.862L139.385 23.6907H139.505L140.862 20.7719L142.554 17.1182H144.933V30.083H142.442V22.5953H142.331L141.317 24.8762L140.183 27.2543H138.595V27.3444Z" fill="#55565B"/>
<path d="M145.044 34.1045C110.097 61.6772 40.1846 56.9281 14.8479 34.1045H0.375977C19.4858 50.418 46.9783 56.6577 70.0475 57.4758C72.4266 57.5659 74.8057 57.5659 77.0645 57.5659C91.9917 57.3857 108.619 54.7372 123.1 48.553C131.592 45.0477 139.07 40.1334 145.044 34.1322" fill="#EF2B2D"/>
<path d="M145.045 34.1045C144.478 34.465 143.911 34.7423 143.464 35.0127C105.339 55.5623 52.424 51.5411 29.6725 34.1045H14.8484C40.1851 56.9281 110.097 61.7674 145.045 34.1045Z" fill="#00A0DC"/>
<path d="M136.679 37.0233C119.364 42.4103 103.097 44.7883 88.8314 44.8715C68.9227 44.9686 53.1968 40.7117 44.8228 34.1045H29.6724C52.295 51.3609 104.66 55.4652 142.665 35.3802C142.957 35.2584 143.226 35.1044 143.464 34.9226C144.031 34.6522 144.478 34.3749 145.044 34.1045C142.219 35.1999 139.384 36.1081 136.679 37.0233Z" fill="white"/>
<path d="M44.8227 34.1042C53.0851 40.4895 68.4674 44.7811 88.0325 44.7811H88.8312C103.08 44.691 119.364 42.3198 136.679 36.9329C139.393 36.0177 142.219 35.1025 145.044 34.1042C138.992 40.0789 131.486 44.9871 122.989 48.5249C108.508 54.7647 91.8802 57.3854 76.9531 57.5379H75.2353C73.5176 57.5379 71.7311 57.5379 69.9189 57.4478C46.8582 56.6574 19.486 50.4177 0.25594 34.1042H44.8227ZM44.8227 34.0071H0.376182C0.25594 34.0071 0.25594 34.0071 0.144287 34.1042V34.2844C9.54031 42.072 20.9808 48.0589 33.6231 51.8043C45.2795 55.2584 57.5299 57.23 69.9361 57.6488C71.7483 57.739 73.4403 57.739 75.2525 57.739H76.9702C84.7816 57.6765 92.5597 56.9091 100.16 55.451C108.098 53.9885 115.774 51.7195 123.006 48.6983C131.493 45.1186 138.991 40.1841 145.044 34.1943V33.917H144.821C142.107 34.9223 139.273 35.9276 136.447 36.7526C120.386 41.7721 103.87 44.5107 88.711 44.6008H87.9208C69.2576 44.6008 53.6519 40.6767 44.9773 33.917C44.9773 34.0071 44.9773 34.0071 44.8571 34.0071" fill="#EF2B2D"/>
</svg>
