<svg width="24" height="24" viewBox="0 0 24 24" fill="none" xmlns="http://www.w3.org/2000/svg">
<path d="M7.27997 9.22006C7.13779 9.08758 6.94975 9.01546 6.75545 9.01889C6.56114 9.02231 6.37576 9.10103 6.23835 9.23844C6.10093 9.37585 6.02222 9.56124 6.01879 9.75554C6.01537 9.94984 6.08749 10.1379 6.21997 10.2801L11.22 15.2801C11.2896 15.3498 11.3723 15.405 11.4633 15.4428C11.5544 15.4805 11.6519 15.4999 11.7505 15.4999C11.849 15.4999 11.9466 15.4805 12.0376 15.4428C12.1286 15.405 12.2113 15.3498 12.281 15.2801L17.281 10.2801C17.4175 10.1385 17.493 9.94906 17.4912 9.75241C17.4894 9.55576 17.4105 9.36769 17.2713 9.2287C17.1322 9.08971 16.9441 9.01092 16.7474 9.0093C16.5508 9.00769 16.3614 9.08337 16.22 9.22006L11.75 13.6891L7.27997 9.22006Z" fill="#ffffff"/>
</svg>
