<svg width="24" height="24" viewBox="0 0 24 24" fill="none" xmlns="http://www.w3.org/2000/svg">
<path fill-rule="evenodd" clip-rule="evenodd" d="M12.25 4.25951C10.6153 4.25951 9.25 5.63399 9.25 7.3797C9.25 9.12542 10.6153 10.4999 12.25 10.4999C13.8847 10.4999 15.25 9.12542 15.25 7.3797C15.25 5.63399 13.8847 4.25951 12.25 4.25951ZM7.75 7.3797C7.75 4.85052 9.74259 2.75951 12.25 2.75951C14.7574 2.75951 16.75 4.85052 16.75 7.3797C16.75 9.90889 14.7574 11.9999 12.25 11.9999C9.74259 11.9999 7.75 9.90889 7.75 7.3797Z" fill="#0097ff"/>
<path fill-rule="evenodd" clip-rule="evenodd" d="M5.30972 15.3519C6.15168 14.483 7.29875 13.9903 8.5 13.9903H16C17.2012 13.9903 18.3483 14.483 19.1903 15.3519C20.0315 16.2201 20.5 17.3926 20.5 18.6105V20.5456C20.5 20.9598 20.1642 21.2956 19.75 21.2956H4.75C4.33579 21.2956 4 20.9598 4 20.5456V18.6105L5.5 18.6105V19.7956H19V18.6105C19 17.7754 18.6784 16.9792 18.113 16.3957C17.5485 15.8131 16.7879 15.4903 16 15.4903H8.5C7.71212 15.4903 6.95154 15.8131 6.38698 16.3957C5.82163 16.9792 5.5 17.7755 5.5 18.6105L4 18.6105C4 17.3927 4.46854 16.2201 5.30972 15.3519Z" fill="#0097ff"/>
</svg>
