<svg width="23" height="23" viewBox="0 0 23 23" fill="none" xmlns="http://www.w3.org/2000/svg">
<path fill-rule="evenodd" clip-rule="evenodd" d="M11.5 2.77563C6.52944 2.77563 2.5 6.80507 2.5 11.7756C2.5 16.7462 6.52944 20.7756 11.5 20.7756C16.4706 20.7756 20.5 16.7462 20.5 11.7756C20.5 6.80507 16.4706 2.77563 11.5 2.77563ZM0.5 11.7756C0.5 5.7005 5.42487 0.775635 11.5 0.775635C17.5751 0.775635 22.5 5.7005 22.5 11.7756C22.5 17.8508 17.5751 22.7756 11.5 22.7756C5.42487 22.7756 0.5 17.8508 0.5 11.7756ZM11.5 10.7756C12.0523 10.7756 12.5 11.2233 12.5 11.7756V15.7756C12.5 16.3279 12.0523 16.7756 11.5 16.7756C10.9477 16.7756 10.5 16.3279 10.5 15.7756V11.7756C10.5 11.2233 10.9477 10.7756 11.5 10.7756ZM11.5 6.77563C10.9477 6.77563 10.5 7.22335 10.5 7.77563C10.5 8.32792 10.9477 8.77563 11.5 8.77563H11.51C12.0623 8.77563 12.51 8.32792 12.51 7.77563C12.51 7.22335 12.0623 6.77563 11.51 6.77563H11.5Z" fill="#0097ff"/>
</svg>
