<svg width="11" height="11" viewBox="0 0 11 11" fill="none" xmlns="http://www.w3.org/2000/svg">
<path fill-rule="evenodd" clip-rule="evenodd" d="M10.0425 1.11287L5.87789 5.27743L10.0605 9.92483L9.31725 10.5938L4.81725 5.5938L4.49991 5.2412L4.83535 4.90576L9.33535 0.405762L10.0425 1.11287ZM5.54246 1.11313L1.37789 5.2777L5.56055 9.9251L4.81726 10.5941L0.317256 5.59406L-8.58307e-05 5.24146L0.33535 4.90603L4.83535 0.406026L5.54246 1.11313Z" fill="#A6A6A6"/>
</svg>
