<svg width="16" height="16" viewBox="0 0 16 16" fill="none" xmlns="http://www.w3.org/2000/svg">
<path d="M15.5869 11.6219V13.8162C15.5877 14.0199 15.5458 14.2215 15.4637 14.4082C15.3817 14.5948 15.2614 14.7624 15.1105 14.9001C14.9596 15.0378 14.7814 15.1426 14.5875 15.2079C14.3935 15.2732 14.1879 15.2974 13.984 15.2791C11.7213 15.0345 9.54794 14.2654 7.63839 13.0336C5.8618 11.9106 4.35556 10.4122 3.22663 8.64492C1.98397 6.73675 1.21064 4.56422 0.969286 2.30335C0.950911 2.10108 0.975076 1.89722 1.04024 1.70476C1.10541 1.51229 1.21015 1.33543 1.34779 1.18543C1.48543 1.03544 1.65296 0.915596 1.83972 0.833538C2.02647 0.751479 2.22836 0.709002 2.43252 0.708811H4.6384C4.99524 0.705317 5.34118 0.831019 5.61175 1.06249C5.88231 1.29395 6.05904 1.61539 6.10898 1.96689C6.20209 2.66912 6.37475 3.35861 6.62369 4.02223C6.72261 4.28403 6.74403 4.56855 6.68538 4.84208C6.62674 5.11562 6.4905 5.36669 6.2928 5.56557L5.35898 6.49449C6.40571 8.32568 7.9299 9.84188 9.77074 10.8831L10.7046 9.9542C10.9045 9.75754 11.1569 9.62201 11.4319 9.56368C11.7068 9.50534 11.9928 9.52664 12.256 9.62505C12.9231 9.87268 13.6163 10.0444 14.3222 10.1371C14.6794 10.1872 15.0056 10.3661 15.2388 10.6399C15.472 10.9137 15.5959 11.2632 15.5869 11.6219Z" fill="#353535"/>
<path fill-rule="evenodd" clip-rule="evenodd" d="M9.63671 0.690919C9.64662 0.597834 9.73037 0.530385 9.82376 0.540268C11.3356 0.700253 12.7477 1.37366 13.8264 2.44884C14.905 3.52399 15.5858 4.93648 15.7564 6.45264C15.7669 6.54566 15.6997 6.62953 15.6063 6.63996C15.513 6.65039 15.4289 6.58344 15.4184 6.49041C15.2564 5.05033 14.6098 3.70913 13.5859 2.68854C12.562 1.66797 11.2221 1.02912 9.78785 0.877356C9.69446 0.867474 9.62679 0.784003 9.63671 0.690919Z" fill="#353535"/>
<path fill-rule="evenodd" clip-rule="evenodd" d="M9.63924 3.72527C9.65827 3.63361 9.74825 3.57467 9.84021 3.59364C10.5527 3.74057 11.2053 4.10785 11.7138 4.64638C12.2223 5.18483 12.5633 5.86968 12.694 6.61167C12.7102 6.70387 12.6484 6.79173 12.5559 6.80791C12.4634 6.82409 12.3753 6.76247 12.359 6.67027C12.2396 5.99193 11.9281 5.36788 11.4662 4.87871C11.0044 4.38964 10.4137 4.05806 9.77131 3.92559C9.67934 3.90662 9.62021 3.81694 9.63924 3.72527Z" fill="#353535"/>
</svg>
