<svg width="20" height="17" viewBox="0 0 20 17" fill="none" xmlns="http://www.w3.org/2000/svg">
<path d="M0.30207 7.90763C2.34812 6.75094 4.63207 5.78555 6.76608 4.81523C10.4374 3.22592 14.1233 1.66415 17.8464 0.21016C18.5708 -0.0375849 19.8724 -0.279866 20 0.821889C19.9301 2.38141 19.6427 3.93181 19.4455 5.4822C18.945 8.89165 18.3665 12.2894 17.8024 15.6877C17.608 16.8196 16.2264 17.4056 15.3424 16.6812C13.2179 15.2083 11.077 13.7499 8.97959 12.2429C8.29254 11.5264 8.92963 10.4974 9.54325 9.98577C11.2931 8.21593 13.1488 6.71224 14.8072 4.85093C15.2545 3.74222 13.9328 4.67661 13.4968 4.9629C11.1013 6.65715 8.76438 8.45484 6.23874 9.94386C4.94865 10.6727 3.44502 10.0498 2.15551 9.64312C0.999303 9.15182 -0.69497 8.65686 0.301953 7.90771L0.30207 7.90763Z" fill="#0097ff"/>
</svg>
